-----BEGIN PGP PUBLIC KEY BLOCK-----

mDMEXSKP5hYJKwYBBAHaRw8BAQdA5RXHkbxT+vTvwEcBIkJbU8gj5KDfwqqeCqla
sW7/nGi0GU9sYSBCaW5pIDxvbGFAb2xhYmluaS5zZT6IrQQTFgoAPgIbAwULCQgH
AwUVCgkICwUWAgMBAAIeAQIXgBYhBHtFeMfQEiv3a17l3WeGoVD2orKPBQJiVuUJ
BQkI9rwjACEJEGeGoVD2orKPFiEEe0V4x9ASK/drXuXdZ4ahUPaiso8e3QEA6zK3
0VCswlJqwEtwTFwXyz+ogw7Azo1JTgwiNp3lyT0BAMYTyCo0BSil2E1WNxFzc/c7
dMAlYK8l585A/jJHoKgOuDgEXSKP5hIKKwYBBAGXVQEFAQEHQAPlTVmhZMRCww41
pPXV2xRyDwy2MuXbJkgy/nQ0jSwGAwEIB4iVBBgWCgAmAhsMFiEEe0V4x9ASK/dr
XuXdZ4ahUPaiso8FAmLMRCgFCQlsG0IAIQkQZ4ahUPaiso8WIQR7RXjH0BIr92te
5d1nhqFQ9qKyj8qdAQCiDsieOFIjQQDcGYELUx+6SpdiPdPPz+nBRGk84raepgEA
uNTp+NLqi4+N9CwkyVGZLmWsouTA33NtINla+7ON2Qs=
=F0RB
-----END PGP PUBLIC KEY BLOCK-----
